L03 Olivia Allen
…
Exercise 4✅

Use the drinks dataset and only the pivot_longer function to recreate the following:

Solution

drinks %>%
 pivot_longer(
   cols = c(beer_servings, spirit_servings, wine_servings),
   names_to = "type",
   values_to = "servings",
   names_pattern = "(.*)_servings"
 )

# A tibble: 579 × 4
   country     total_litres_of_pure_alcohol type   servings
   <chr>                              <dbl> <chr>     <int>
 1 Afghanistan                          0   beer          0
 2 Afghanistan                          0   spirit        0
 3 Afghanistan                          0   wine          0
 4 Albania                              4.9 beer         89
 5 Albania                              4.9 spirit      132
 6 Albania                              4.9 wine         54
 7 Algeria                              0.7 beer         25
 8 Algeria                              0.7 spirit        0
 9 Algeria                              0.7 wine         14
10 Andorra                             12.4 beer        245
# ℹ 569 more rows
…
